digraph "AuxiliarsGenerals.cc"
{
  edge [fontname="FreeSans",fontsize="10",labelfontname="FreeSans",labelfontsize="10"];
  node [fontname="FreeSans",fontsize="10",shape=record];
  Node1 [label="AuxiliarsGenerals.cc",height=0.2,width=0.4,color="black", fillcolor="grey75", style="filled", fontcolor="black"];
  Node1 -> Node2 [color="midnightblue",fontsize="10",style="solid",fontname="FreeSans"];
  Node2 [label="string",height=0.2,width=0.4,color="grey75", fillcolor="white", style="filled"];
  Node1 -> Node3 [color="midnightblue",fontsize="10",style="solid",fontname="FreeSans"];
  Node3 [label="sstream",height=0.2,width=0.4,color="grey75", fillcolor="white", style="filled"];
  Node1 -> Node4 [color="midnightblue",fontsize="10",style="solid",fontname="FreeSans"];
  Node4 [label="vector",height=0.2,width=0.4,color="grey75", fillcolor="white", style="filled"];
  Node1 -> Node5 [color="midnightblue",fontsize="10",style="solid",fontname="FreeSans"];
  Node5 [label="iostream",height=0.2,width=0.4,color="grey75", fillcolor="white", style="filled"];
  Node1 -> Node6 [color="midnightblue",fontsize="10",style="solid",fontname="FreeSans"];
  Node6 [label="set",height=0.2,width=0.4,color="grey75", fillcolor="white", style="filled"];
  Node1 -> Node7 [color="midnightblue",fontsize="10",style="solid",fontname="FreeSans"];
  Node7 [label="cmath",height=0.2,width=0.4,color="grey75", fillcolor="white", style="filled"];
  Node1 -> Node8 [color="midnightblue",fontsize="10",style="solid",fontname="FreeSans"];
  Node8 [label="AuxiliarsGenerals.hh",height=0.2,width=0.4,color="black", fillcolor="white", style="filled",URL="$_auxiliars_generals_8hh.html"];
  Node8 -> Node2 [color="midnightblue",fontsize="10",style="solid",fontname="FreeSans"];
  Node8 -> Node9 [color="midnightblue",fontsize="10",style="solid",fontname="FreeSans"];
  Node9 [label="Arbre.hh",height=0.2,width=0.4,color="grey75", fillcolor="white", style="filled"];
  Node8 -> Node4 [color="midnightblue",fontsize="10",style="solid",fontname="FreeSans"];
  Node8 -> Node6 [color="midnightblue",fontsize="10",style="solid",fontname="FreeSans"];
}
