digraph "AuxiliarsGenerals.hh"
{
  edge [fontname="FreeSans",fontsize="10",labelfontname="FreeSans",labelfontsize="10"];
  node [fontname="FreeSans",fontsize="10",shape=record];
  Node1 [label="AuxiliarsGenerals.hh",height=0.2,width=0.4,color="black", fillcolor="grey75", style="filled", fontcolor="black"];
  Node1 -> Node2 [color="midnightblue",fontsize="10",style="solid"];
  Node2 [label="string",height=0.2,width=0.4,color="grey75", fillcolor="white", style="filled"];
  Node1 -> Node3 [color="midnightblue",fontsize="10",style="solid"];
  Node3 [label="Arbre.hh",height=0.2,width=0.4,color="grey75", fillcolor="white", style="filled"];
  Node1 -> Node4 [color="midnightblue",fontsize="10",style="solid"];
  Node4 [label="vector",height=0.2,width=0.4,color="grey75", fillcolor="white", style="filled"];
  Node1 -> Node5 [color="midnightblue",fontsize="10",style="solid"];
  Node5 [label="set",height=0.2,width=0.4,color="grey75", fillcolor="white", style="filled"];
}
