afegir text "Un      titol  , amb    un autor.  Junts   ."

triar text {titol Junts}

contingut ?
1 Aixo es un text, sense formatar.
2 Conte dos frases.

autor ?
Un autor valid

info ?
Un autor valid "Un titol, amb un autor. Junts." 2 9
Cites Associades:

tots textos ?
Un autor valid "Un titol, amb un autor. Junts."

afegir text "Un altr       e txt  ."

afegir text "   UN text sense text"

afegir text "Se suposa    ; que aixo    :    es formata   ."

tots textos ?
No autor "Se suposa; que aixo: es formata."
Un altre autor valid text "Un altr e txt."
Un autor valid "UN text sense text"
Un autor valid "Un titol, amb un autor. Junts."

triar text {Un altr}

afegir cita 1 1

eliminar text

tots autors ?
No autor 1 1 7
Un autor valid 2 3 18

triar text {formatar Conte dos frases}

eliminar text

tots autors ?
No autor 1 1 7
Un autor valid 1 1 9

tots textos ?
No autor "Se suposa; que aixo: es formata."
Un autor valid "UN text sense text"

afegir text "Moc"

afegir text "Kom"

tots autors ?
No autor 1 1 7
Tecla 2 4 13
Un autor valid 1 1 9

tots textos ?
No autor "Se suposa; que aixo: es formata."
Tecla "Kom"
Tecla "Moc"
Un autor valid "UN text sense text"

triar text {Moc}

eliminar text

triar text {Kom}

eliminar text

triar text {No autor volem malament}

eliminar text

triar text {text}

eliminar text

tots autors ?

totes cites ?
Uaavt1
1 Un text.
Un altre autor valid text "Un altr e txt."

afegir text "Un altr       e txt  ."

totes cites ?
Uaavt1
1 Un text.
Un altre autor valid text "Un altr e txt."

cites autor "Un altre autor valid text" ?
Uaavt1
1 Un text.
"Un altr e txt."

afegir text "Un text molt mes diferent"

triar text {Un igual vali}

afegir cita 1 1

triar text {altr e txt}

afegir cita 1 1
error

totes cites ?
Uaavt1
1 Un text.
Un altre autor valid text "Un altr e txt."
Uaavt2
1 Un text amb un autor igual, pero sense la ultima lletra.
U altr auto vali tex "Un text molt mes diferent"

substitueix "text" per "valid"

afegir cita 1 1
error

totes cites ?
Uaavt1
1 Un text.
Un altre autor valid text "Un altr e txt."
Uaavt2
1 Un text amb un autor igual, pero sense la ultima lletra.
U altr auto vali tex "Un text molt mes diferent"

afegir cita 1 1
error

