afegir text "Text 1"

afegir text "Text 2"

afegir text "Text 3"

triar text {1}

contingut ?
1 Ya doy zukile lohetiki lev ref qiheve him totecetu pa qut ra leyapix luqobupibuzak.
2 Jat.
3 vuqesozo paf la saj gi qi ye mug fowav qeqe ro cub qetum.
4 Luwusesudi va nadac cupeya jo zulu wu ziw xozos bu taz hi pok kab wij bom rucic vozis xi nud.
5 jiz te ziwa mejiseqevipiqup kuja god, milapod.
6 holanuriko hipiwawe zeciwu wepey fanuyot ke gak tu coh qerezon liqapemop niq kosezasoh zemi de juvag yopawo tu nu fiyo buze ve xor.
7 gomega kugopok.
8 xif tata wepaqabiqe cubikej.
9 zeta yavu wuka facopa qi rusopol.
10 je pebif zelun fobiqecur vi qe.

triar text {2}

contingut ?
1 Kiq ruw xoka ca rigesi cuti ne hutabez vo hot zosedin pal buz ge hiwipisey qo riz duyom ru fap novok.
2 hivamahokuyuhecugadar tu, puy copi tu xapik, hifo zeqov muwo wiyen ziv xayo meqiqejoxevajored ba.
3 ho nokewawefex, xub gidepaz holitequz fewuja pupeh kohucon.
4 yosaj novem ge favibu leyahazozux delecub moy dez doxuxuqop yi lesice vi yuw cos?
5 Sadozuw xogeco.
6 kuma si tiqo qe lo suhojixuh wo log koq pow, jo wi bovogod cewibika.
7 red yulu zot li gadegoxa wiju ta suwa dokifucudoros goz za caze quwij vo, la vi zuliqihowit xu ke vu.
8 gigu lani tuj bofi gos.
9 re fe xokez paqa be ve qazaqey saqosi.

triar text {3}

contingut ?
1 Moso vemohe webi gis tec.
2 hit sucevi von cin kesi su niyi jid jewix, siy su ji yekudoxunes qoqe du xolof niz zecu caz to qap jeke fapexore visac xoza.
3 Si ki befi ceqan suruve canu tezij hire.
4 fo qi wisofat mazo jol badul sucutidir dope qi to.
5 Wo hupi liho sazenolip pigeduda tu juzu ci.
6 qezot liloxo wuzay ko fabelegakof jewewaja zeqiv ha, pokum sajax ya hu yol la cu hup.
7 lupud bojibeg virajow wi, nev wiq cuvazewopuj logag zul jaxo ze qi puquruc vifigubu kimonofe mi ji wi nu suf ril lafatoca wa but za sijixe nag.
8 ka gotal mibeletowo ha ne.
9 Kiwo vij ho vayiki qo welitoq jaso jinajipi kuyutuq siko ka re niq no ceqinimov duqu tih ya pasanezinocu tezawewav geke yake.
10 fa hun xap nir gacipa ro.
11 fu yev haqet hi fa nihasonejosabukicivigo fuqusucenaf tadesire pi faqazihoc map xag bu rak powure.
12 wu qeg ki tulusa limaxedahifalibagiva.
13 di jule mifik noqamul ba fu di xo hu lun yedokofi qis va taboxiniwaqeya.
14 boh bafovutoquxij xici lume.

afegir cita 1 1

afegir cita 2 2

afegir cita 3 3

afegir cita 4 4

afegir cita 5 5

afegir cita 6 6

afegir cita 7 7

afegir cita 8 8

afegir cita 9 9

afegir cita 10 10

afegir cita 8 12

afegir cita 12 14

cites ?
AF1
1 Moso vemohe webi gis tec.
Autor Floures "Text 3"
AF2
2 hit sucevi von cin kesi su niyi jid jewix, siy su ji yekudoxunes qoqe du xolof niz zecu caz to qap jeke fapexore visac xoza.
Autor Floures "Text 3"
AF3
3 Si ki befi ceqan suruve canu tezij hire.
Autor Floures "Text 3"
AF4
4 fo qi wisofat mazo jol badul sucutidir dope qi to.
Autor Floures "Text 3"
AF5
5 Wo hupi liho sazenolip pigeduda tu juzu ci.
Autor Floures "Text 3"
AF6
6 qezot liloxo wuzay ko fabelegakof jewewaja zeqiv ha, pokum sajax ya hu yol la cu hup.
Autor Floures "Text 3"
AF7
7 lupud bojibeg virajow wi, nev wiq cuvazewopuj logag zul jaxo ze qi puquruc vifigubu kimonofe mi ji wi nu suf ril lafatoca wa but za sijixe nag.
Autor Floures "Text 3"
AF8
8 ka gotal mibeletowo ha ne.
Autor Floures "Text 3"
AF9
9 Kiwo vij ho vayiki qo welitoq jaso jinajipi kuyutuq siko ka re niq no ceqinimov duqu tih ya pasanezinocu tezawewav geke yake.
Autor Floures "Text 3"
AF10
10 fa hun xap nir gacipa ro.
Autor Floures "Text 3"
AF11
8 ka gotal mibeletowo ha ne.
9 Kiwo vij ho vayiki qo welitoq jaso jinajipi kuyutuq siko ka re niq no ceqinimov duqu tih ya pasanezinocu tezawewav geke yake.
10 fa hun xap nir gacipa ro.
11 fu yev haqet hi fa nihasonejosabukicivigo fuqusucenaf tadesire pi faqazihoc map xag bu rak powure.
12 wu qeg ki tulusa limaxedahifalibagiva.
Autor Floures "Text 3"
AF12
12 wu qeg ki tulusa limaxedahifalibagiva.
13 di jule mifik noqamul ba fu di xo hu lun yedokofi qis va taboxiniwaqeya.
14 boh bafovutoquxij xici lume.
Autor Floures "Text 3"

eliminar cita "AF1"

eliminar cita "AF2"

eliminar cita "AF3"

eliminar cita "AF4"

eliminar cita "AF5"

eliminar cita "AF6"

eliminar cita "AF7"

eliminar cita "AF8"

eliminar cita "AF9"

eliminar cita "AF10"

eliminar cita "AF11"

eliminar cita "AF12"

afegir cita 1 1

afegir cita 2 2

afegir cita 3 3

afegir cita 4 4

afegir cita 5 5

afegir cita 6 6

afegir cita 7 7

afegir cita 8 8

afegir cita 9 9

afegir cita 10 10

afegir cita 8 12

afegir cita 12 14

cites ?
AF13
1 Moso vemohe webi gis tec.
Autor Floures "Text 3"
AF14
2 hit sucevi von cin kesi su niyi jid jewix, siy su ji yekudoxunes qoqe du xolof niz zecu caz to qap jeke fapexore visac xoza.
Autor Floures "Text 3"
AF15
3 Si ki befi ceqan suruve canu tezij hire.
Autor Floures "Text 3"
AF16
4 fo qi wisofat mazo jol badul sucutidir dope qi to.
Autor Floures "Text 3"
AF17
5 Wo hupi liho sazenolip pigeduda tu juzu ci.
Autor Floures "Text 3"
AF18
6 qezot liloxo wuzay ko fabelegakof jewewaja zeqiv ha, pokum sajax ya hu yol la cu hup.
Autor Floures "Text 3"
AF19
7 lupud bojibeg virajow wi, nev wiq cuvazewopuj logag zul jaxo ze qi puquruc vifigubu kimonofe mi ji wi nu suf ril lafatoca wa but za sijixe nag.
Autor Floures "Text 3"
AF20
8 ka gotal mibeletowo ha ne.
Autor Floures "Text 3"
AF21
9 Kiwo vij ho vayiki qo welitoq jaso jinajipi kuyutuq siko ka re niq no ceqinimov duqu tih ya pasanezinocu tezawewav geke yake.
Autor Floures "Text 3"
AF22
10 fa hun xap nir gacipa ro.
Autor Floures "Text 3"
AF23
8 ka gotal mibeletowo ha ne.
9 Kiwo vij ho vayiki qo welitoq jaso jinajipi kuyutuq siko ka re niq no ceqinimov duqu tih ya pasanezinocu tezawewav geke yake.
10 fa hun xap nir gacipa ro.
11 fu yev haqet hi fa nihasonejosabukicivigo fuqusucenaf tadesire pi faqazihoc map xag bu rak powure.
12 wu qeg ki tulusa limaxedahifalibagiva.
Autor Floures "Text 3"
AF24
12 wu qeg ki tulusa limaxedahifalibagiva.
13 di jule mifik noqamul ba fu di xo hu lun yedokofi qis va taboxiniwaqeya.
14 boh bafovutoquxij xici lume.
Autor Floures "Text 3"

triar text {1}

afegir cita 1 1

afegir cita 1 1
error

afegir cita 2 2

afegir cita 3 3

afegir cita 4 4

afegir cita 5 5

triar text {3}

afegir cita 1 3

totes cites ?
AF13
1 Moso vemohe webi gis tec.
Autor Floures "Text 3"
AF14
2 hit sucevi von cin kesi su niyi jid jewix, siy su ji yekudoxunes qoqe du xolof niz zecu caz to qap jeke fapexore visac xoza.
Autor Floures "Text 3"
AF15
3 Si ki befi ceqan suruve canu tezij hire.
Autor Floures "Text 3"
AF16
4 fo qi wisofat mazo jol badul sucutidir dope qi to.
Autor Floures "Text 3"
AF17
5 Wo hupi liho sazenolip pigeduda tu juzu ci.
Autor Floures "Text 3"
AF18
6 qezot liloxo wuzay ko fabelegakof jewewaja zeqiv ha, pokum sajax ya hu yol la cu hup.
Autor Floures "Text 3"
AF19
7 lupud bojibeg virajow wi, nev wiq cuvazewopuj logag zul jaxo ze qi puquruc vifigubu kimonofe mi ji wi nu suf ril lafatoca wa but za sijixe nag.
Autor Floures "Text 3"
AF20
8 ka gotal mibeletowo ha ne.
Autor Floures "Text 3"
AF21
9 Kiwo vij ho vayiki qo welitoq jaso jinajipi kuyutuq siko ka re niq no ceqinimov duqu tih ya pasanezinocu tezawewav geke yake.
Autor Floures "Text 3"
AF22
10 fa hun xap nir gacipa ro.
Autor Floures "Text 3"
AF23
8 ka gotal mibeletowo ha ne.
9 Kiwo vij ho vayiki qo welitoq jaso jinajipi kuyutuq siko ka re niq no ceqinimov duqu tih ya pasanezinocu tezawewav geke yake.
10 fa hun xap nir gacipa ro.
11 fu yev haqet hi fa nihasonejosabukicivigo fuqusucenaf tadesire pi faqazihoc map xag bu rak powure.
12 wu qeg ki tulusa limaxedahifalibagiva.
Autor Floures "Text 3"
AF24
12 wu qeg ki tulusa limaxedahifalibagiva.
13 di jule mifik noqamul ba fu di xo hu lun yedokofi qis va taboxiniwaqeya.
14 boh bafovutoquxij xici lume.
Autor Floures "Text 3"
AF25
1 Moso vemohe webi gis tec.
2 hit sucevi von cin kesi su niyi jid jewix, siy su ji yekudoxunes qoqe du xolof niz zecu caz to qap jeke fapexore visac xoza.
3 Si ki befi ceqan suruve canu tezij hire.
Autor Floures "Text 3"
Af1
1 Ya doy zukile lohetiki lev ref qiheve him totecetu pa qut ra leyapix luqobupibuzak.
Autor flores "Text 1"
Af2
2 Jat.
Autor flores "Text 1"
Af3
3 vuqesozo paf la saj gi qi ye mug fowav qeqe ro cub qetum.
Autor flores "Text 1"
Af4
4 Luwusesudi va nadac cupeya jo zulu wu ziw xozos bu taz hi pok kab wij bom rucic vozis xi nud.
Autor flores "Text 1"
Af5
5 jiz te ziwa mejiseqevipiqup kuja god, milapod.
Autor flores "Text 1"

eliminar text

totes cites ?
AF13
1 Moso vemohe webi gis tec.
Autor Floures "Text 3"
AF14
2 hit sucevi von cin kesi su niyi jid jewix, siy su ji yekudoxunes qoqe du xolof niz zecu caz to qap jeke fapexore visac xoza.
Autor Floures "Text 3"
AF15
3 Si ki befi ceqan suruve canu tezij hire.
Autor Floures "Text 3"
AF16
4 fo qi wisofat mazo jol badul sucutidir dope qi to.
Autor Floures "Text 3"
AF17
5 Wo hupi liho sazenolip pigeduda tu juzu ci.
Autor Floures "Text 3"
AF18
6 qezot liloxo wuzay ko fabelegakof jewewaja zeqiv ha, pokum sajax ya hu yol la cu hup.
Autor Floures "Text 3"
AF19
7 lupud bojibeg virajow wi, nev wiq cuvazewopuj logag zul jaxo ze qi puquruc vifigubu kimonofe mi ji wi nu suf ril lafatoca wa but za sijixe nag.
Autor Floures "Text 3"
AF20
8 ka gotal mibeletowo ha ne.
Autor Floures "Text 3"
AF21
9 Kiwo vij ho vayiki qo welitoq jaso jinajipi kuyutuq siko ka re niq no ceqinimov duqu tih ya pasanezinocu tezawewav geke yake.
Autor Floures "Text 3"
AF22
10 fa hun xap nir gacipa ro.
Autor Floures "Text 3"
AF23
8 ka gotal mibeletowo ha ne.
9 Kiwo vij ho vayiki qo welitoq jaso jinajipi kuyutuq siko ka re niq no ceqinimov duqu tih ya pasanezinocu tezawewav geke yake.
10 fa hun xap nir gacipa ro.
11 fu yev haqet hi fa nihasonejosabukicivigo fuqusucenaf tadesire pi faqazihoc map xag bu rak powure.
12 wu qeg ki tulusa limaxedahifalibagiva.
Autor Floures "Text 3"
AF24
12 wu qeg ki tulusa limaxedahifalibagiva.
13 di jule mifik noqamul ba fu di xo hu lun yedokofi qis va taboxiniwaqeya.
14 boh bafovutoquxij xici lume.
Autor Floures "Text 3"
AF25
1 Moso vemohe webi gis tec.
2 hit sucevi von cin kesi su niyi jid jewix, siy su ji yekudoxunes qoqe du xolof niz zecu caz to qap jeke fapexore visac xoza.
3 Si ki befi ceqan suruve canu tezij hire.
Autor Floures "Text 3"
Af1
1 Ya doy zukile lohetiki lev ref qiheve him totecetu pa qut ra leyapix luqobupibuzak.
Autor flores "Text 1"
Af2
2 Jat.
Autor flores "Text 1"
Af3
3 vuqesozo paf la saj gi qi ye mug fowav qeqe ro cub qetum.
Autor flores "Text 1"
Af4
4 Luwusesudi va nadac cupeya jo zulu wu ziw xozos bu taz hi pok kab wij bom rucic vozis xi nud.
Autor flores "Text 1"
Af5
5 jiz te ziwa mejiseqevipiqup kuja god, milapod.
Autor flores "Text 1"

afegir text "Text 3"

triar text {3}

triar text {di jule mifik noqamul}

cites ?
AF13
1 Moso vemohe webi gis tec.
Autor Floures "Text 3"
AF14
2 hit sucevi von cin kesi su niyi jid jewix, siy su ji yekudoxunes qoqe du xolof niz zecu caz to qap jeke fapexore visac xoza.
Autor Floures "Text 3"
AF15
3 Si ki befi ceqan suruve canu tezij hire.
Autor Floures "Text 3"
AF16
4 fo qi wisofat mazo jol badul sucutidir dope qi to.
Autor Floures "Text 3"
AF17
5 Wo hupi liho sazenolip pigeduda tu juzu ci.
Autor Floures "Text 3"
AF18
6 qezot liloxo wuzay ko fabelegakof jewewaja zeqiv ha, pokum sajax ya hu yol la cu hup.
Autor Floures "Text 3"
AF19
7 lupud bojibeg virajow wi, nev wiq cuvazewopuj logag zul jaxo ze qi puquruc vifigubu kimonofe mi ji wi nu suf ril lafatoca wa but za sijixe nag.
Autor Floures "Text 3"
AF20
8 ka gotal mibeletowo ha ne.
Autor Floures "Text 3"
AF21
9 Kiwo vij ho vayiki qo welitoq jaso jinajipi kuyutuq siko ka re niq no ceqinimov duqu tih ya pasanezinocu tezawewav geke yake.
Autor Floures "Text 3"
AF22
10 fa hun xap nir gacipa ro.
Autor Floures "Text 3"
AF23
8 ka gotal mibeletowo ha ne.
9 Kiwo vij ho vayiki qo welitoq jaso jinajipi kuyutuq siko ka re niq no ceqinimov duqu tih ya pasanezinocu tezawewav geke yake.
10 fa hun xap nir gacipa ro.
11 fu yev haqet hi fa nihasonejosabukicivigo fuqusucenaf tadesire pi faqazihoc map xag bu rak powure.
12 wu qeg ki tulusa limaxedahifalibagiva.
Autor Floures "Text 3"
AF24
12 wu qeg ki tulusa limaxedahifalibagiva.
13 di jule mifik noqamul ba fu di xo hu lun yedokofi qis va taboxiniwaqeya.
14 boh bafovutoquxij xici lume.
Autor Floures "Text 3"
AF25
1 Moso vemohe webi gis tec.
2 hit sucevi von cin kesi su niyi jid jewix, siy su ji yekudoxunes qoqe du xolof niz zecu caz to qap jeke fapexore visac xoza.
3 Si ki befi ceqan suruve canu tezij hire.
Autor Floures "Text 3"

